PS270 Final Project
…
Data Visualization

judges

# A tibble: 2,268 × 15
    ...1     nid first.name last.name   eval.year court     pap gender
   <dbl>   <dbl> <chr>      <chr>           <dbl> <chr>   <dbl>  <dbl>
 1     1 4263096 A.         Quattlebaum      2021 U.S. C…     1      1
 2     2 4263096 A.         Quattlebaum      2024 U.S. C…     1      1
 3     3 1385106 Abner      Mikva            1990 U.S. C…     0      1
 4     4 1385106 Abner      Mikva            1994 U.S. C…     0      1
 5     5 1390991 Adalberto  Jordan           2015 U.S. C…     0      1
 6     6 1390991 Adalberto  Jordan           2017 U.S. C…     0      1
 7     7 1390991 Adalberto  Jordan           2020 U.S. C…     0      1
 8     8 1390991 Adalberto  Jordan           2024 U.S. C…     0      1
 9     9 1384036 Alan       Lourie           1995 U.S. C…     1      1
10    10 1384036 Alan       Lourie           1999 U.S. C…     1      1
# ℹ 2,258 more rows
# ℹ 7 more variables: asian <dbl>, black <dbl>, hispanic <dbl>,
#   white <dbl>, judjis_score <dbl>, ci_l <dbl>, ci_u <dbl>
…
